<?xml version="1.0" encoding="UTF-8" standalone="no"?>
<svg
   xmlns:dc="http://purl.org/dc/elements/1.1/"
   xmlns:cc="http://creativecommons.org/ns#"
   xmlns:rdf="http://www.w3.org/1999/02/22-rdf-syntax-ns#"
   xmlns:svg="http://www.w3.org/2000/svg"
   xmlns="http://www.w3.org/2000/svg"
   id="svg8"
   version="1.1"
   viewBox="0 0 332.61899 218.46986"
   height=""
   width=""
   preserveAspectRatio="none">
  <defs
     id="defs2" />
  <metadata
     id="metadata5">
    <rdf:RDF>
      <cc:Work
         rdf:about="">
        <dc:format>image/svg+xml</dc:format>
        <dc:type
           rdf:resource="http://purl.org/dc/dcmitype/StillImage" />
        <dc:title></dc:title>
      </cc:Work>
    </rdf:RDF>
  </metadata>
  <g
     transform="translate(464.15462,-34.684705)"
     id="layer1">
    <path
       id="rect815"
       d="M -464.15462,34.684725 V 253.15459 h 332.61898 V 34.684725 Z m 137.66005,2.11667 c 68.9553,0 160.95322,-2.11667 176.47431,35.643925 23.25416,56.57403 16.58854,113.8571 7.44771,133.84023 -27.14476,59.34226 -150.1399,44.22321 -188.53482,44.22321 -82.915,0 -114.38487,-53.65195 -124.73178,-93.43534 -10.3469,-39.7834 -31.92582,-120.272025 129.34458,-120.272025 z"
       style="opacity:1;fill:#ffffff;fill-opacity:1;stroke:none;stroke-width:5.5999999;stroke-linecap:round;stroke-linejoin:bevel;stroke-miterlimit:4;stroke-dasharray:none;stroke-dashoffset:0;stroke-opacity:1;paint-order:fill markers stroke" />
  </g>
</svg>
